<svg width="90" height="50" viewBox="0 0 90 50" fill="none" xmlns="http://www.w3.org/2000/svg">
    <path d="M20.2247 16.8431V25.2244C20.2247 38.9075 31.3172 49.9999 45.0003 49.9997C58.6832 49.9995 69.7753 38.9073 69.7753 25.2244V16.8427C69.7753 7.54093 77.3157 0.000306227 86.6175 8.16613e-05L0 0.000654206L3.38279 0.000735874C12.6844 0.000960436 20.2247 7.54145 20.2247 16.8431Z" fill="url(#paint0_linear_1379_5837)" fill-opacity="0.8"/>
    <defs>
        <linearGradient id="paint0_linear_1379_5837" x1="45" y1="0" x2="45.0001" y2="50.0003" gradientUnits="userSpaceOnUse">
            <stop stop-color="#04182B"/>
            <stop offset="0.229167" stop-color="#072B4D"/>
        </linearGradient>
    </defs>
</svg>

