<svg width="48" height="48" viewBox="0 0 48 48" fill="none" xmlns="http://www.w3.org/2000/svg">
<path d="M48.0001 18L12.0001 42H4.78906L48.0001 13.193V18Z" fill="#FADC30"/>
<path d="M36 6H43.211L0 34.807V30L36 6Z" fill="#FADC30"/>
<path d="M2 6H36L0 30V8C0 6.895 0.895 6 2 6Z" fill="#3E74BA"/>
<path d="M46 42H12L48 18V40C48 41.105 47.105 42 46 42Z" fill="#3E74BA"/>
<path d="M4.789 42H2C0.895 42 0 41.105 0 40V34.807L43.211 6H46C47.105 6 48 6.895 48 8V13.193L4.789 42Z" fill="#CC162C"/>
<path d="M12.256 10.617H9.348L8.128 7.96899L6.906 10.617H4L6.124 12.81L5.338 16L8.128 14.416L10.918 16L10.132 12.811L12.256 10.617Z" fill="#F6D031"/>
</svg>
