<svg width="48" height="48" viewBox="0 0 48 48" fill="none" xmlns="http://www.w3.org/2000/svg">
<path d="M16 42H2C0.895 42 0 41.105 0 40V8C0 6.895 0.895 6 2 6H16V42Z" fill="#0D795F"/>
<path d="M48 40C48 41.105 47.105 42 46 42H32V6H46C47.105 6 48 6.895 48 8V40Z" fill="#F8D112"/>
<path d="M32 6H16V42H32V6Z" fill="#CB2322"/>
<path d="M30.3048 21.724H25.8638L23.9998 17.683L22.1358 21.724H17.6958L20.9398 25.081L19.7408 29.947L23.9998 27.528L28.2598 29.947L27.0608 25.081L30.3048 21.724Z" fill="#EBCA19"/>
</svg>
