<svg width="48" height="48" viewBox="0 0 48 48" fill="none" xmlns="http://www.w3.org/2000/svg">
<g clip-path="url(#clip0_1678_12114)">
<path d="M46 6H2C1.46957 6 0.960859 6.21071 0.585786 6.58579C0.210714 6.96086 0 7.46957 0 8L0 40C0 40.5304 0.210714 41.0391 0.585786 41.4142C0.960859 41.7893 1.46957 42 2 42H46C46.5304 42 47.0391 41.7893 47.4142 41.4142C47.7893 41.0391 48 40.5304 48 40V8C48 7.46957 47.7893 6.96086 47.4142 6.58579C47.0391 6.21071 46.5304 6 46 6Z" fill="#0F2E72"/>
<path d="M19 19H16V19.25L22.333 24H24V22.75L19 19Z" fill="#FF0000"/>
<path d="M0.120117 7.34003L5.00012 11H8.00012V10.75L1.70612 6.03003C1.34755 6.08331 1.01033 6.23348 0.730831 6.46434C0.451335 6.69519 0.240172 6.99798 0.120117 7.34003Z" fill="#FF0000"/>
<path d="M24 6H22.334L16 10.75V11H19.001L24 7.25V6Z" fill="#FF0000"/>
<path d="M0 22.75V24H1.667L8 19.25V19H5L0 22.75Z" fill="#FF0000"/>
<path d="M24 13H14V6H10V13H0V17H10V24H14V17H24V13Z" fill="#FF0000"/>
<path d="M42 31C42 33 36 36 36 36C36 36 30 33 30 31V22H42V31Z" fill="#2F70BE"/>
</g>
<defs>
<clipPath id="clip0_1678_12114">
<rect width="48" height="48" fill="white"/>
</clipPath>
</defs>
</svg>
