<svg width="48" height="48" viewBox="0 0 48 48" fill="none" xmlns="http://www.w3.org/2000/svg">
<path d="M48 40C48 41.105 47.105 42 46 42H2C0.895 42 0 41.105 0 40V8C0 6.895 0.895 6 2 6H46C47.105 6 48 6.895 48 8V40Z" fill="#CE2029"/>
<path d="M31.7949 25.236L30.0059 21.658C29.5129 20.67 28.3109 20.269 27.3229 20.763L25.5339 21.658L23.7449 18.08C23.2509 17.093 22.0499 16.692 21.0609 17.186L17.4839 18.975L15.6949 15.398C14.7069 15.891 14.3059 17.093 14.7999 18.081L15.6949 19.87C16.1889 20.858 17.3899 21.259 18.3789 20.764L21.9559 18.975L23.7449 22.553L21.9559 23.447C20.9689 23.941 20.5679 25.142 21.0619 26.13L22.8509 29.708L19.2739 31.497C19.7669 32.484 20.9689 32.885 21.9569 32.392L23.7459 31.497C24.7339 31.003 25.1349 29.802 24.6399 28.813L22.8509 25.236L24.6399 24.341L26.4289 23.446L28.2179 22.552L30.0059 26.129C30.4999 27.117 31.7009 27.518 32.6899 27.024L34.4789 26.129C35.4659 25.636 35.8669 24.434 35.3729 23.446L31.7949 25.236Z" fill="white"/>
</svg>
