<svg width="48" height="48" viewBox="0 0 48 48" fill="none" xmlns="http://www.w3.org/2000/svg">
<path d="M48 8C48 6.895 47.104 6 46 6H20V26H0V40C0 41.105 0.896 42 2 42H46C47.104 42 48 41.105 48 40V8Z" fill="#AF2839"/>
<path d="M48 10H20V14H48V10Z" fill="#E6E6E6"/>
<path d="M48 18H20V22H48V18Z" fill="#E6E6E6"/>
<path d="M0 26V30H48V26H20H0Z" fill="#E6E6E6"/>
<path d="M48 34H0V38H48V34Z" fill="#E6E6E6"/>
<path d="M20 26H0V8C0 6.895 0.895 6 2 6H20V26Z" fill="#202D61"/>
<path d="M14.1849 14.613H11.2369L9.99994 11.93L8.76294 14.614H5.81494L7.96794 16.841L7.17294 20.07L9.99994 18.465L12.8269 20.071L12.0309 16.84L14.1849 14.613Z" fill="white"/>
</svg>
