<svg width="48" height="48" viewBox="0 0 48 48" fill="none" xmlns="http://www.w3.org/2000/svg">
<path d="M48 40C48 41.105 47.105 42 46 42H2C0.895 42 0 41.105 0 40V8C0 6.895 0.895 6 2 6H46C47.105 6 48 6.895 48 8V40Z" fill="#0D8643"/>
<path d="M31.573 17.537C31.827 18.318 32 19.135 32 20C32 24.418 28.418 28 24 28C19.582 28 16 24.418 16 20C16 19.135 16.173 18.318 16.427 17.537C14.935 19.285 14 21.523 14 24C14 29.523 18.478 34 24 34C29.522 34 34 29.523 34 24C34 21.523 33.065 19.285 31.573 17.537Z" fill="#FFCE19"/>
<path d="M28.1849 16.543H25.2369L23.9999 13.859L22.7629 16.543H19.8159L21.9689 18.77L21.1729 22L23.9999 20.395L26.8269 22L26.0309 18.77L28.1849 16.543Z" fill="#FFCE19"/>
<path d="M0 8C0 6.89543 0.895431 6 2 6H46C47.1046 6 48 6.89543 48 8V12H0V8Z" fill="#BD1D27"/>
<path d="M48 40C48 41.1046 47.1046 42 46 42L2 42C0.895432 42 7.8281e-08 41.1046 1.74846e-07 40L5.24537e-07 36L48 36L48 40Z" fill="#BD1D27"/>
</svg>
