<svg width="48" height="48" viewBox="0 0 48 48" fill="none" xmlns="http://www.w3.org/2000/svg">
<g clip-path="url(#clip0_1678_12654)">
<path d="M46 6H2C1.46957 6 0.960859 6.21071 0.585786 6.58579C0.210714 6.96086 0 7.46957 0 8L0 40C0 40.5304 0.210714 41.0391 0.585786 41.4142C0.960859 41.7893 1.46957 42 2 42H46C46.5304 42 47.0391 41.7893 47.4142 41.4142C47.7893 41.0391 48 40.5304 48 40V8C48 7.46957 47.7893 6.96086 47.4142 6.58579C47.0391 6.21071 46.5304 6 46 6Z" fill="#0F2E72"/>
<path d="M19 19H16V19.25L22.333 24H24V22.75L19 19Z" fill="#FF0000"/>
<path d="M0.120117 7.34L5.00012 11H8.00012V10.75L1.70612 6.03C1.34755 6.08328 1.01033 6.23345 0.730831 6.46431C0.451335 6.69516 0.240172 6.99795 0.120117 7.34Z" fill="#FF0000"/>
<path d="M24 6H22.334L16 10.75V11H19.001L24 7.25V6Z" fill="#FF0000"/>
<path d="M0 22.75V24H1.667L8 19.25V19H5L0 22.75Z" fill="#FF0000"/>
<path d="M24 13H14V6H10V13H0V17H10V24H14V17H24V13Z" fill="#FF0000"/>
<path d="M40.0002 31.2H38.1002L37.3002 29.47L36.5002 31.2H34.6152L36.0002 32.628L35.4892 34.71L37.3092 33.678L39.1292 34.71L38.6162 32.628L40.0002 31.2Z" fill="#FF0000"/>
<path d="M33.946 21.377H32.557L31.974 20.109L31.389 21.377H30L31.015 22.423L30.641 23.948L31.974 23.191L33.307 23.948L32.931 22.423L33.946 21.377Z" fill="#FF0000"/>
<path d="M44.281 21.268H42.892L42.308 20L41.723 21.268H40.335L41.35 22.314L40.975 23.839L42.308 23.082L43.641 23.839L43.265 22.314L44.281 21.268Z" fill="#FF0000"/>
<path d="M39.281 15.268H37.892L37.308 14L36.723 15.268H35.335L36.35 16.314L35.975 17.839L37.308 17.082L38.641 17.839L38.265 16.314L39.281 15.268Z" fill="#FF0000"/>
</g>
<defs>
<clipPath id="clip0_1678_12654">
<rect width="48" height="48" fill="white"/>
</clipPath>
</defs>
</svg>
