<svg width="48" height="48" viewBox="0 0 48 48" fill="none" xmlns="http://www.w3.org/2000/svg">
<path d="M4 42H2C0.895 42 0 41.105 0 40V36L44 6H46C47.105 6 48 6.895 48 8V12L4 42Z" fill="#FAFD00"/>
<path d="M46 42H4L48 12V40C48 41.105 47.105 42 46 42Z" fill="#048204"/>
<path d="M2 6H44L0 36V8C0 6.895 0.895 6 2 6Z" fill="#040385"/>
<path d="M14.5181 10.422H12.4121L11.5271 8.5L10.6411 10.422H8.53711L10.0741 12.008L9.50611 14.32L11.5271 13.174L13.5491 14.32L12.9791 12.008L14.5181 10.422Z" fill="white"/>
<path d="M8.00022 17.26H6.61922L6.03722 16L5.45722 17.26H4.07422L5.08222 18.303L4.70922 19.819L6.03722 19.067L7.36122 19.819L6.99022 18.303L8.00022 17.26Z" fill="white"/>
<path d="M12.0002 21.441H10.6192L10.0372 20.181L9.45722 21.441H8.07422L9.08222 22.484L8.70922 24L10.0372 23.248L11.3612 24L10.9902 22.484L12.0002 21.441Z" fill="white"/>
<path d="M20.0001 16.102H17.8951L17.0101 14.18L16.1231 16.102H14.0181L15.5571 17.688L14.9881 20L17.0101 18.852L19.0311 20L18.4611 17.688L20.0001 16.102Z" fill="white"/>
</svg>
