<svg width="48" height="48" viewBox="0 0 48 48" fill="none" xmlns="http://www.w3.org/2000/svg">
<path d="M48 40C48 41.105 47.105 42 46 42H2C0.895 42 0 41.105 0 40V30H48V40Z" fill="#000105"/>
<path d="M48 18H0V30H48V18Z" fill="#E6E6E6"/>
<path d="M48 18H0V8C0 6.895 0.895 6 2 6H46C47.105 6 48 6.895 48 8V18Z" fill="#CC162C"/>
<path d="M20.3128 22.613H17.3648L16.1288 19.929L14.8918 22.613H11.9448L14.0978 24.84L13.3018 28.07L16.1288 26.465L18.9558 28.07L18.1598 24.84L20.3128 22.613Z" fill="#0E783D"/>
<path d="M35.9998 22.613H33.0518L31.8158 19.929L30.5788 22.613H27.6318L29.7848 24.84L28.9888 28.07L31.8158 26.465L34.6428 28.07L33.8468 24.84L35.9998 22.613Z" fill="#0E783D"/>
</svg>
