<svg width="48" height="48" viewBox="0 0 48 48" fill="none" xmlns="http://www.w3.org/2000/svg">
<path d="M48 40C48 41.105 47.105 42 46 42H2C0.895 42 0 41.105 0 40V8C0 6.895 0.895 6 2 6H46C47.105 6 48 6.895 48 8V40Z" fill="#0142A6"/>
<path d="M26.1281 15.225H24.6291L24.0001 13.859L23.3701 15.224H21.8721L22.9671 16.356L22.5621 18L24.0001 17.184L25.4381 18L25.0331 16.356L26.1281 15.225Z" fill="white"/>
<path d="M33.1549 15.225H31.6559L31.0269 13.86L30.3969 15.225H28.8989L29.9939 16.357L29.5889 18L31.0279 17.184L32.4659 18L32.0609 16.356L33.1549 15.225Z" fill="white"/>
<path d="M40.256 15.225H38.757L38.128 13.86L37.498 15.225H36L37.095 16.357L36.689 18L38.128 17.184L39.566 18L39.161 16.356L40.256 15.225Z" fill="white"/>
<path d="M19.1012 15.225H17.6022L16.9732 13.86L16.3432 15.225H14.8452L15.9402 16.357L15.5342 18L16.9722 17.184L18.4112 18L18.0062 16.356L19.1012 15.225Z" fill="white"/>
<path d="M12.256 15.225H10.757L10.128 13.86L9.498 15.225H8L9.095 16.357L8.689 18L10.128 17.184L11.566 18L11.161 16.356L12.256 15.225Z" fill="white"/>
<path d="M24 34C27.3137 34 30 31.3137 30 28C30 24.6863 27.3137 22 24 22C20.6863 22 18 24.6863 18 28C18 31.3137 20.6863 34 24 34Z" fill="#F5CB07"/>
</svg>
