<svg width="48" height="48" viewBox="0 0 48 48" fill="none" xmlns="http://www.w3.org/2000/svg">
<g clip-path="url(#clip0_1678_11766)">
<path d="M46 6H2C1.46957 6 0.960859 6.21071 0.585786 6.58579C0.210714 6.96086 0 7.46957 0 8L0 40C0 40.5304 0.210714 41.0391 0.585786 41.4142C0.960859 41.7893 1.46957 42 2 42H46C46.5304 42 47.0391 41.7893 47.4142 41.4142C47.7893 41.0391 48 40.5304 48 40V8C48 7.46957 47.7893 6.96086 47.4142 6.58579C47.0391 6.21071 46.5304 6 46 6Z" fill="#0F2E72"/>
<path d="M19 19H16V19.25L22.333 24H24V22.75L19 19Z" fill="#FF0000"/>
<path d="M0.120117 7.34L5.00012 11H8.00012V10.75L1.70612 6.03C1.34755 6.08328 1.01033 6.23345 0.730831 6.46431C0.451335 6.69516 0.240172 6.99795 0.120117 7.34Z" fill="#FF0000"/>
<path d="M24 6H22.334L16 10.75V11H19.001L24 7.25V6Z" fill="#FF0000"/>
<path d="M0 22.75V24H1.667L8 19.25V19H5L0 22.75Z" fill="#FF0000"/>
<path d="M24 13H14V6H10V13H0V17H10V24H14V17H24V13Z" fill="#FF0000"/>
<path d="M12.172 30L12.905 32.059L14.879 31.121L13.941 33.095L16 33.828L13.941 34.561L14.879 36.535L12.905 35.596L12.172 37.656L11.439 35.596L9.46499 36.535L10.404 34.561L8.34399 33.828L10.404 33.095L9.46499 31.121L11.439 32.059L12.172 30Z" fill="white"/>
<path d="M31.1549 22.522L31.5049 23.505L32.4479 23.057L31.9999 24L32.9829 24.35L31.9999 24.7L32.4479 25.642L31.5049 25.194L31.1549 26.178L30.8049 25.194L29.8629 25.642L30.3109 24.7L29.3269 24.35L30.3109 24L29.8629 23.057L30.8049 23.505L31.1549 22.522Z" fill="white"/>
<path d="M36.172 13.344L36.522 14.327L37.465 13.879L37.017 14.822L38 15.172L37.017 15.522L37.465 16.465L36.522 16.016L36.172 17L35.822 16.016L34.879 16.465L35.328 15.522L34.344 15.172L35.328 14.822L34.879 13.879L35.822 14.327L36.172 13.344Z" fill="white"/>
<path d="M42.828 20.344L43.178 21.327L44.121 20.879L43.673 21.822L44.656 22.172L43.673 22.522L44.121 23.465L43.178 23.016L42.828 24L42.478 23.016L41.535 23.465L41.984 22.522L41 22.172L41.984 21.822L41.535 20.879L42.478 21.327L42.828 20.344Z" fill="white"/>
<path d="M36.172 31L36.522 31.983L37.465 31.535L37.017 32.478L38 32.828L37.017 33.178L37.465 34.121L36.522 33.672L36.172 34.656L35.822 33.672L34.879 34.121L35.328 33.178L34.344 32.828L35.328 32.478L34.879 31.535L35.822 31.983L36.172 31Z" fill="white"/>
</g>
<defs>
<clipPath id="clip0_1678_11766">
<rect width="48" height="48" fill="white"/>
</clipPath>
</defs>
</svg>
