<svg width="48" height="48" viewBox="0 0 48 48" fill="none" xmlns="http://www.w3.org/2000/svg">
<path d="M48 24H0V8C0 6.895 0.895 6 2 6H46C47.105 6 48 6.895 48 8V24Z" fill="#EC3122"/>
<path d="M48 40C48 41.105 47.105 42 46 42H2C0.895 42 0 41.105 0 40V22H48V40Z" fill="#119A4A"/>
<path d="M32.3609 21.041H26.4699L23.9999 15.683L21.5269 21.041H15.6379L19.9409 25.494L18.3509 31.947L23.9999 28.739L29.6479 31.947L28.0579 25.494L32.3609 21.041Z" fill="#EBCA19"/>
</svg>
