<svg width="48" height="48" viewBox="0 0 48 48" fill="none" xmlns="http://www.w3.org/2000/svg">
<path d="M48 40C48 41.105 47.105 42 46 42H2C0.895 42 0 41.105 0 40V38H48V40Z" fill="#D1142A"/>
<path d="M48 10H0V38H48V10Z" fill="#033E8A"/>
<path d="M48 10H0V8C0 6.895 0.895 6 2 6H46C47.105 6 48 6.895 48 8V10Z" fill="#D1142A"/>
<path d="M24 32C28.4183 32 32 28.4183 32 24C32 19.5817 28.4183 16 24 16C19.5817 16 16 19.5817 16 24C16 28.4183 19.5817 32 24 32Z" fill="white"/>
<path d="M24 20C24.5523 20 25 19.5523 25 19C25 18.4477 24.5523 18 24 18C23.4477 18 23 18.4477 23 19C23 19.5523 23.4477 20 24 20Z" fill="#7AC943"/>
<path d="M24 30C24.5523 30 25 29.5523 25 29C25 28.4477 24.5523 28 24 28C23.4477 28 23 28.4477 23 29C23 29.5523 23.4477 30 24 30Z" fill="#7AC943"/>
<path d="M28.193 21.0973C28.5768 20.6994 28.5658 20.066 28.1683 19.6825C27.7708 19.2991 27.1374 19.3108 26.7536 19.7087C26.3698 20.1065 26.3808 20.7399 26.7783 21.1234C27.1758 21.5068 27.8092 21.4951 28.193 21.0973Z" fill="#7AC943"/>
<path d="M21.2455 28.2935C21.6295 27.8966 21.619 27.2635 21.2221 26.8795C20.8252 26.4955 20.1921 26.506 19.8081 26.9029C19.4241 27.2999 19.4346 27.9329 19.8315 28.3169C20.2284 28.7009 20.8615 28.6905 21.2455 28.2935Z" fill="#7AC943"/>
<path d="M29.0315 24.8245C29.5839 24.8046 30.0156 24.341 29.9957 23.7891C29.9757 23.2372 29.5117 22.806 28.9593 22.8259C28.4068 22.8459 27.9751 23.3095 27.9951 23.8614C28.015 24.4133 28.479 24.8445 29.0315 24.8245Z" fill="#7AC943"/>
<path d="M19.0366 25.1763C19.5886 25.1574 20.0207 24.6942 20.0018 24.1417C19.9829 23.5892 19.5201 23.1566 18.9682 23.1755C18.4162 23.1944 17.9841 23.6576 18.003 24.2101C18.0219 24.7626 18.4847 25.1952 19.0366 25.1763Z" fill="#7AC943"/>
<path d="M28.4583 28.0162C28.8281 27.6059 28.7949 26.9733 28.3843 26.6032C27.9737 26.2331 27.341 26.2656 26.9713 26.6758C26.6015 27.0861 26.6347 27.7187 27.0453 28.0888C27.4559 28.4589 28.0886 28.4264 28.4583 28.0162Z" fill="#7AC943"/>
<path d="M21.0244 21.3242C21.3945 20.9136 21.3623 20.2812 20.9525 19.9118C20.5427 19.5425 19.9104 19.5759 19.5403 19.9866C19.1702 20.3972 19.2023 21.0295 19.6122 21.3989C20.022 21.7683 20.6543 21.7349 21.0244 21.3242Z" fill="#7AC943"/>
<path d="M26 22H22V26H26V22Z" fill="#B5B994"/>
</svg>
