<svg width="48" height="48" viewBox="0 0 48 48" fill="none" xmlns="http://www.w3.org/2000/svg">
<path d="M48 18H0V8C0 6.895 0.895 6 2 6H46C47.105 6 48 6.895 48 8V18Z" fill="#108745"/>
<path d="M48 18H0V30H48V18Z" fill="#FDDC05"/>
<path d="M48 40C48 41.105 47.105 42 46 42H2C0.895 42 0 41.105 0 40V30H48V40Z" fill="#C60B1E"/>
<path d="M24 34C29.5228 34 34 29.5228 34 24C34 18.4772 29.5228 14 24 14C18.4772 14 14 18.4772 14 24C14 29.5228 18.4772 34 24 34Z" fill="#20508E"/>
<path d="M28.3201 24L30.6301 20H26.0111L24.0001 16.516L21.9881 20H17.3691L19.6791 24L17.3691 28H21.9881L24.0001 31.484L26.0121 28H30.6311L28.3201 24ZM23.1431 26L21.9891 24L23.1431 22H24.8581L26.0121 24L24.8581 26H23.1431Z" fill="#FDDC05"/>
</svg>
