<svg width="48" height="48" viewBox="0 0 48 48" fill="none" xmlns="http://www.w3.org/2000/svg">
<path d="M48 40C48 41.105 47.105 42 46 42H2C0.895 42 0 41.105 0 40V8C0 6.895 0.895 6 2 6H46C47.105 6 48 6.895 48 8V40Z" fill="#E6E6E6"/>
<path d="M13.1971 11.3985L7.20312 19.4035L8.80493 20.6029L14.7989 12.5979L13.1971 11.3985Z" fill="black"/>
<path d="M34.801 11.3994L33.2002 12.6L39.2002 20.6L40.801 19.3994L34.801 11.3994Z" fill="black"/>
<path d="M8.801 27.3994L7.2002 28.6L13.2002 36.6L14.801 35.3994L8.801 27.3994Z" fill="black"/>
<path d="M39.1986 27.3986L33.2046 35.4036L34.8064 36.603L40.8004 28.598L39.1986 27.3986Z" fill="black"/>
<path d="M34 24C34 21.238 31.7621 19 29.0001 19C26.2381 19 24.0001 21.238 24.0001 24C24.0001 26.762 21.7621 29 19.0001 29C16.5841 29 14.5681 27.287 14.1021 25.008C14.6131 30.051 18.8221 34 24.0001 34C29.1781 34 33.387 30.051 33.898 25.008C33.965 24.682 34 24.346 34 24Z" fill="#053676"/>
<path d="M24 14C18.822 14 14.613 17.949 14.102 22.992C14.035 23.318 14 23.654 14 24C14 26.762 16.238 29 19 29C21.762 29 24 26.762 24 24C24 21.238 26.238 19 29 19C31.416 19 33.432 20.713 33.898 22.992C33.387 17.949 29.178 14 24 14Z" fill="#BA0831"/>
</svg>
