<svg width="48" height="48" viewBox="0 0 48 48" fill="none" xmlns="http://www.w3.org/2000/svg">
<path d="M48 40C48 41.105 47.105 42 46 42H2C0.895 42 0 41.105 0 40V8C0 6.895 0.895 6 2 6H46C47.105 6 48 6.895 48 8V40Z" fill="#C0272C"/>
<path d="M32.3612 21.041H26.4702L24.0002 15.683L21.5282 21.041H15.6382L19.9422 25.494L18.3512 31.947L24.0002 28.739L29.6482 31.947L28.0572 25.494L32.3612 21.041ZM26.5942 27.912L24.0002 26.438L21.4062 27.912L22.1492 24.898L20.3532 23.041H22.8072L24.0002 20.458L25.1912 23.041H27.6462L25.8502 24.898L26.5942 27.912Z" fill="#484C29"/>
</svg>
