<svg width="48" height="48" viewBox="0 0 48 48" fill="none" xmlns="http://www.w3.org/2000/svg">
<path d="M48 40C48 41.105 47.105 42 46 42H2C0.895 42 0 41.105 0 40V8C0 6.895 0.895 6 2 6H46C47.105 6 48 6.895 48 8V40Z" fill="#E6E6E6"/>
<path d="M12 22H28L8 6H2C0.896 6 0 6.895 0 8V20V40C0 41.105 0.896 42 2 42H30L12 22Z" fill="#DA1A40"/>
<path d="M12.6149 29.994L11.3999 32.365L13.9999 32.959L11.5429 33.996L13.1519 36.119L10.6039 35.336L10.4699 38L9.02386 35.76L7.20886 37.713L7.53986 35.068L4.89486 35.398L6.84986 33.584L4.60986 32.137L7.27186 32.004L6.48686 29.455L8.61186 31.064L9.64886 28.609L10.2429 31.207L12.6149 29.994Z" fill="white"/>
<path d="M9 17C10.1046 17 11 16.1046 11 15C11 13.8954 10.1046 13 9 13C7.89543 13 7 13.8954 7 15C7 16.1046 7.89543 17 9 17Z" fill="white"/>
<path d="M9 20C6.243 20 4 17.758 4 15H6C6 16.654 7.346 18 9 18C10.654 18 12 16.654 12 15H14C14 17.758 11.757 20 9 20Z" fill="white"/>
</svg>
